id,name,description,sequence,oe_group/id
isf_home_dashboard.operations,Point of Sale,Point of Sale,0,isf_cims_module.group_cims_pos
isf_home_dashboard.accountant,Accountant,Accounting,1,isf_cims_module.group_cims_account
isf_home_dashboard.hr,Human Resources,Human Resources,2,isf_cims_module.group_cims_hr
isf_home_dashboard.logistic,Logistic,Logistic,3,isf_cims_module.group_cims_logistic
isf_home_dashboard.pharmacy,Pharmacy,Pharmacy,4,isf_cims_module.group_cims_pharmacy